1 10 20
100 200 125
201 210 89
900 1000 174
55 969 179
295 824 171
445 632 142
74 574 144
421 571 142
223 547 144
245 943 179
373 904 179
78 959 179
30 884 179
471 744 171
479 890 179
182 792 171
163 826 171
118 677 145
120 562 144
337 593 142
365 603 142
35 788 171
304 831 171
305 725 171
91 611 144
382 872 179
464 662 145
419 963 179
360 924 179
435 891 179
213 592 144
272 963 179
13 536 144
391 928 179
462 840 171
267 666 145
141 995 179
169 813 171
349 874 179
480 643 142
196 622 144
141 545 144
136 543 144
273 507 144
139 786 171
205 902 179
147 573 144
311 948 179
90 637 144
270 974 179
270 804 171
499 715 171
83 566 144
81 557 144
59 784 171
81 858 171
315 614 144
203 752 171
376 844 171
67 745 171
4 817 171
170 573 144
388 587 142
376 597 142
147 933 179
218 525 144
398 679 145
147 565 144
362 923 179
348 724 171
378 664 145
500 767 171
243 984 179
218 643 144
479 584 142
85 979 179
295 594 144
335 930 179
408 974 179
328 771 171
401 760 171
91 823 171
120 677 145
78 503 144
50 525 144
355 702 145
229 504 144
457 797 171
222 599 144
300 539 144
414 1000 179
191 593 144
303 577 144
30 692 145
68 515 144
364 609 142
288 735 171
44 957 179
14 640 144
292 829 171
118 636 144
161 579 144
300 834 171
119 509 144
399 618 142
238 508 144
430 728 171
409 632 142
282 768 171
165 705 171
186 818 171
470 953 179
254 660 145
278 837 171
384 520 142
272 615 144
186 742 171
264 558 144
433 750 171
167 716 171
450 619 142
368 769 171
433 658 145
12 754 171
316 526 144
378 577 142
40 981 179
324 716 171
81 789 171
115 664 145
477 985 179
414 929 179
100 963 179
399 886 179
415 542 142
379 557 142
382 594 142
136 988 179
474 790 171
485 728 171
226 796 171
143 588 144
390 909 179
167 766 171
359 588 142
217 556 144
132 934 179
292 833 171
362 938 179
271 576 144
427 881 179
35 915 179
335 798 171
