.......x......xxx...........
----------------------------------------------------------------------
Ran 28 tests in 0.089s

OK (expected failures=4)
Name             Stmts   Miss Branch BrPart  Cover   Missing
------------------------------------------------------------
Collatz.py          66      0     36      0   100%
TestCollatz.py     112      0      0      0   100%
------------------------------------------------------------
TOTAL              178      0     36      0   100%
