................
----------------------------------------------------------------------
Ran 16 tests in 0.472s

OK
Name             Stmts   Miss Branch BrPart  Cover   Missing
------------------------------------------------------------
Collatz.py          47      0     22      0   100%
TestCollatz.py      69      0      0      0   100%
------------------------------------------------------------
TOTAL              116      0     22      0   100%
