1 10 20
100 200 125
201 210 89
900 1000 174
1000 900 174
555555 777777 509
123789 321987 443
3728 8457 262
163781 521497 470
681603 854 509
297890 131958 443
466239 262169 449
712000 393019 509
158533 875974 525
842048 119946 525
804330 784697 468
555522 782692 509
995725 212078 525
945265 391760 525
750167 457060 509
645738 553752 509
880532 631158 525
767386 175580 509
182545 590377 470
727758 67610 509
557574 115000 470
354439 471851 449
263625 374434 441
828505 107127 509
393924 442881 449
504326 141887 449
641995 689178 442
308907 696589 509
280752 689833 509
251640 159683 443
705304 973504 525
118062 335570 443
763034 638040 504
958969 157398 525
362510 211414 443
44143 827378 509
959160 295606 525
999246 319538 525
90760 269530 443
863270 692811 525
346059 827884 509
593575 82223 470
684923 771690 504
856032 614871 525
504893 396515 449
209697 935201 525
411932 855085 525
364242 489038 449
540766 447404 470
359300 625082 470
613020 665342 509
137902 679803 509
905084 606589 525
50028 931223 525
341735 988065 525
481528 336038 449
629943 948680 525
777210 871893 525
6401 239837 443
656648 287497 509
511136 539801 470
88157 487445 449
174449 983430 525
807284 283555 509
689025 561066 509
697021 468173 509
765677 33399 509
995375 824424 525
1707 861597 525
7530 199753 383
198460 748450 509
304010 124935 443
853779 580918 525
988805 867227 507
90227 831898 509
786461 312750 509
25930 178423 383
601046 947820 525
495693 323965 449
868966 802795 525
763087 224243 509
100638 537658 470
706709 497012 509
726252 611054 509
918689 859866 476
485620 815225 509
875759 688573 525
600235 10325 470
621015 311160 470
454593 759482 509
899067 426912 525
732522 31186 509
454837 906244 525
573981 734675 509
474007 401120 449
394765 609844 470
218320 338155 443
166980 730867 509
196434 418395 449
291428 506865 449
812558 512189 509
388670 81256 443
449387 737944 509
8107 384991 443
378870 867036 525
192522 824153 509
35670 48071 314
173301 935131 525
963654 389961 525
963904 383515 525
6291 633357 509
519564 765000 509
342691 477474 449
953089 484899 525
462331 170822 449
492922 637124 509
274259 734466 509
372360 364193 392
849385 487654 525
523764 998387 525
936976 476159 525
274951 901795 525
451844 74878 449
973294 749702 525
815978 154816 509
451962 391861 449
518883 394728 470
621926 486738 470
969191 33924 525
468738 179121 449
856382 961267 507
861980 425074 525
310728 30754 443
483477 341476 449
68374 316017 443
78103 783802 509
71518 207245 383
26967 972245 525
726267 349463 509
922799 2552 525
483051 350388 449
595190 925559 525
161558 210859 373
554352 297249 470
156538 361342 443
725535 68252 509
265098 562035 470
23377 40583 324
799876 906461 525
515835 693186 509
997709 634367 525
34477 45103 324
848278 856894 419
126472 266227 443
21248 790928 509
567012 288982 470
462694 627531 509
900525 752024 525
298886 71021 443
983304 507435 525
573953 445467 470
48182 329037 443
312683 138000 443
65763 820744 509
649009 612702 509
600391 529577 452
456222 169942 449
222061 167575 386
946328 645434 525
156538 800380 509
615737 87622 470
602643 919416 525
895493 964651 507
604873 777145 509
911693 454359 525
57407 905722 525
171906 970658 525
362740 572152 470
596745 201206 470
683192 161867 509
277706 328584 389
240195 622430 470
524808 780970 509
350435 931461 525
995220 836472 525
847456 416797 525
217491 197991 386
793781 274479 509
463670 692887 509
243285 73176 443
181006 489362 449
166897 487016 449
876647 415799 525
4657 378211 443
159233 770523 509
640038 666113 442
892588 771956 525
602645 387564 470
601603 837093 509
404465 636776 509
432016 510808 444
72456 437877 449
293163 752637 509
570316 118327 470
