..................
----------------------------------------------------------------------
Ran 18 tests in 57.516s

OK
Name             Stmts   Miss Branch BrPart  Cover   Missing
------------------------------------------------------------
Collatz.py          41      0     16      0   100%
TestCollatz.py      78      0      2      1    99%   143->exit
------------------------------------------------------------
TOTAL              119      0     18      1    99%